Topic 1-03: Get pathways from MSigDB • GSEAtraining
…
Values in the gs_cat column and the gs_subcat column can be used to retrieve gene sets in a specific category. E.g., we want to extract genesets in C2 category and CP:KEGG sub-category:

gene_sets = msigdbr(category = "C2", subcategory = "CP:KEGG")
gene_sets

## # A tibble: 16,283 × 15
##    gs_cat gs_subcat gs_name               gene_symbol entrez_gene ensembl_gene  
##    <chr>  <chr>     <chr>                 <chr>             <int> <chr>         
##  1 C2     CP:KEGG   KEGG_ABC_TRANSPORTERS ABCA1                19 ENSG000001650…
##  2 C2     CP:KEGG   KEGG_ABC_TRANSPORTERS ABCA10            10349 ENSG000001542…
##  3 C2     CP:KEGG   KEGG_ABC_TRANSPORTERS ABCA12            26154 ENSG000001444…
##  4 C2     CP:KEGG   KEGG_ABC_TRANSPORTERS ABCA13           154664 ENSG000001798…
##  5 C2     CP:KEGG   KEGG_ABC_TRANSPORTERS ABCA2                20 ENSG000001073…
##  6 C2     CP:KEGG   KEGG_ABC_TRANSPORTERS ABCA3                21 ENSG000001679…
##  7 C2     CP:KEGG   KEGG_ABC_TRANSPORTERS ABCA4                24 ENSG000001986…
##  8 C2     CP:KEGG   KEGG_ABC_TRANSPORTERS ABCA5             23461 ENSG000001542…
##  9 C2     CP:KEGG   KEGG_ABC_TRANSPORTERS ABCA6             23460 ENSG000001542…
## 10 C2     CP:KEGG   KEGG_ABC_TRANSPORTERS ABCA7             10347 ENSG000000646…
## # ℹ 16,273 more rows
## # ℹ 9 more variables: human_gene_symbol <chr>, human_entrez_gene <int>,
## #   human_ensembl_gene <chr>, gs_id <chr>, gs_pmid <chr>, gs_geoid <chr>,
## #   gs_exact_source <chr>, gs_url <chr>, gs_description <chr>
…
